<svg width="115" height="44" viewBox="0 0 115 44" fill="none" xmlns="http://www.w3.org/2000/svg">
<path d="M48.9602 6.9297H52.5537V26.2797H48.9602V6.9297ZM65.8316 11.3526C67.693 11.3526 69.1857 11.8962 70.3097 12.9835C71.4341 14.0708 71.9959 15.6833 71.9959 17.821V26.2797H68.5406V18.2633C68.5406 16.9732 68.2365 16.0057 67.6283 15.3608C67.0202 14.6973 66.1543 14.3656 65.0299 14.3656C63.7584 14.3656 62.7542 14.7526 62.0169 15.5266C61.2798 16.2822 60.9112 17.3787 60.9112 18.8161V26.2797H57.4558V11.5184H60.7453V13.4258C61.3168 12.7439 62.0355 12.2279 62.9014 11.8778C63.7677 11.5276 64.7445 11.3526 65.8316 11.3526ZM80.9404 26.4732C79.7424 26.4732 78.5721 26.3165 77.4298 26.0032C76.2871 25.6899 75.3749 25.2937 74.6932 24.8146L76.02 22.1885C76.6834 22.6308 77.4757 22.9902 78.3973 23.2666C79.3371 23.5246 80.2583 23.6536 81.1616 23.6536C83.2254 23.6536 84.2575 23.1099 84.2575 22.0227C84.2575 21.5067 83.9901 21.1473 83.4559 20.9446C82.9397 20.7419 82.1014 20.5484 80.9404 20.3641C79.7241 20.1798 78.729 19.9679 77.955 19.7283C77.1993 19.4887 76.5359 19.0741 75.9647 18.4844C75.4119 17.8763 75.1354 17.0378 75.1354 15.9689C75.1354 14.5683 75.7159 13.4534 76.8769 12.6241C78.0562 11.7764 79.6412 11.3526 81.6315 11.3526C82.6449 11.3526 83.6584 11.4723 84.6722 11.7119C85.6856 11.9331 86.5149 12.2371 87.16 12.6241L85.8332 15.2502C84.5799 14.513 83.1701 14.1445 81.6038 14.1445C80.59 14.1445 79.816 14.3011 79.2818 14.6144C78.7656 14.9093 78.5078 15.3055 78.5078 15.8031C78.5078 16.3559 78.7843 16.7521 79.3371 16.9917C79.9083 17.2128 80.7835 17.4248 81.9632 17.6275C83.1425 17.8118 84.11 18.0237 84.8657 18.2633C85.621 18.5028 86.2661 18.9082 86.8007 19.4795C87.3535 20.0508 87.63 20.8617 87.63 21.9121C87.63 23.2942 87.0308 24.4 85.8332 25.2292C84.6352 26.0585 83.0043 26.4732 80.9404 26.4732ZM99.479 25.478C99.0734 25.8097 98.5758 26.0585 97.9863 26.2244C97.4148 26.3902 96.8067 26.4732 96.1619 26.4732C94.54 26.4732 93.2871 26.0493 92.4025 25.2016C91.5179 24.3539 91.0756 23.1192 91.0756 21.4975V14.3933H88.6431V11.629H91.0756V8.25658H94.531V11.629H98.4839V14.3933H94.531V21.4145C94.531 22.1332 94.7058 22.6861 95.0562 23.0731C95.4062 23.4416 95.9131 23.626 96.5765 23.626C97.3505 23.626 97.9953 23.4232 98.5115 23.0178L99.479 25.478ZM107.961 11.3526C110.135 11.3526 111.794 11.8778 112.936 12.9282C114.097 13.9602 114.678 15.5266 114.678 17.6275V26.2797H111.416V24.4829C110.992 25.1279 110.384 25.6254 109.591 25.9756C108.817 26.3073 107.878 26.4732 106.772 26.4732C105.666 26.4732 104.699 26.2889 103.869 25.9203C103.04 25.5333 102.395 25.0081 101.934 24.3447C101.492 23.6628 101.271 22.898 101.271 22.0503C101.271 20.7235 101.759 19.6638 102.736 18.8714C103.731 18.0605 105.288 17.6551 107.408 17.6551H111.222V17.434C111.222 16.402 110.909 15.6096 110.283 15.0567C109.674 14.5038 108.762 14.2274 107.546 14.2274C106.717 14.2274 105.897 14.3564 105.086 14.6144C104.293 14.8724 103.621 15.2317 103.068 15.6925L101.713 13.177C102.487 12.5873 103.418 12.1358 104.505 11.8225C105.593 11.5092 106.744 11.3526 107.961 11.3526ZM107.491 23.9577C108.357 23.9577 109.122 23.7642 109.785 23.3772C110.467 22.9717 110.946 22.4004 111.222 21.6633V19.9495H107.656C105.666 19.9495 104.671 20.6037 104.671 21.9121C104.671 22.5387 104.92 23.0362 105.417 23.4048C105.915 23.7734 106.606 23.9577 107.491 23.9577Z" fill="#186AB4"/>
<path d="M51.2946 37.4041C50.684 37.4041 50.1312 37.2718 49.636 37.0067C49.1464 36.7362 48.7608 36.3647 48.4785 35.8924C48.202 35.42 48.0638 34.8876 48.0638 34.2943C48.0638 33.7011 48.2048 33.1684 48.4871 32.6962C48.7694 32.224 49.155 31.8554 49.6447 31.5905C50.1398 31.3198 50.6927 31.1845 51.3032 31.1845C51.7984 31.1845 52.2507 31.2709 52.6594 31.4436C53.0682 31.6164 53.4137 31.8669 53.696 32.1952L52.9704 32.8776C52.5326 32.4054 51.9943 32.1693 51.355 32.1693C50.9404 32.1693 50.569 32.2614 50.2407 32.4457C49.9124 32.6242 49.6561 32.8747 49.4719 33.1972C49.2877 33.5197 49.1955 33.8854 49.1955 34.2943C49.1955 34.7031 49.2877 35.069 49.4719 35.3914C49.6561 35.7138 49.9124 35.9674 50.2407 36.1515C50.569 36.3302 50.9404 36.4193 51.355 36.4193C51.9943 36.4193 52.5326 36.1802 52.9704 35.7023L53.696 36.3934C53.4137 36.7217 53.0654 36.9722 52.6508 37.145C52.242 37.3177 51.7897 37.4041 51.2946 37.4041ZM61.1157 37.3177L59.8804 35.5469C59.8286 35.5527 59.7508 35.5555 59.6472 35.5555H58.2823V37.3177H57.1593V31.2709H59.6472C60.1714 31.2709 60.6264 31.3573 61.012 31.53C61.4039 31.7028 61.7031 31.9504 61.9104 32.2729C62.1178 32.5954 62.2214 32.9784 62.2214 33.4218C62.2214 33.8768 62.1091 34.2684 61.8845 34.5966C61.6658 34.9249 61.3489 35.1695 60.9343 35.3309L62.3251 37.3177H61.1157ZM61.0898 33.4218C61.0898 33.036 60.9633 32.7394 60.7097 32.5321C60.4564 32.3248 60.085 32.2211 59.5954 32.2211H58.2823V34.6312H59.5954C60.085 34.6312 60.4564 34.5275 60.7097 34.3202C60.9633 34.1071 61.0898 33.8077 61.0898 33.4218ZM68.4742 35.184V37.3177H67.3512V35.2013L64.9757 31.2709H66.1764L67.9473 34.2166L69.7354 31.2709H70.8411L68.4742 35.184ZM76.4516 31.2709C76.9757 31.2709 77.4305 31.3573 77.8164 31.53C78.2079 31.7028 78.5075 31.9504 78.7148 32.2729C78.9221 32.5954 79.0258 32.9784 79.0258 33.4218C79.0258 33.8595 78.9221 34.2425 78.7148 34.5707C78.5075 34.8931 78.2079 35.1409 77.8164 35.3136C77.4305 35.4864 76.9757 35.5728 76.4516 35.5728H75.0867V37.3177H73.9637V31.2709H76.4516ZM76.3997 34.6226C76.8894 34.6226 77.2608 34.5189 77.5141 34.3116C77.7674 34.1043 77.8942 33.8077 77.8942 33.4218C77.8942 33.036 77.7674 32.7394 77.5141 32.5321C77.2608 32.3248 76.8894 32.2211 76.3997 32.2211H75.0867V34.6226H76.3997ZM83.8457 32.2211H81.8416V31.2709H86.9727V32.2211H84.9686V37.3177H83.8457V32.2211ZM93.0275 37.4041C92.4115 37.4041 91.8555 37.2718 91.3603 37.0067C90.8652 36.7362 90.4765 36.3647 90.1942 35.8924C89.9119 35.4145 89.7709 34.8817 89.7709 34.2943C89.7709 33.7069 89.9119 33.1771 90.1942 32.7048C90.4765 32.2269 90.8652 31.8554 91.3603 31.5905C91.8555 31.3198 92.4115 31.1845 93.0275 31.1845C93.6436 31.1845 94.1996 31.3198 94.6948 31.5905C95.1899 31.8554 95.5786 32.224 95.8609 32.6962C96.1432 33.1684 96.2842 33.7011 96.2842 34.2943C96.2842 34.8876 96.1432 35.42 95.8609 35.8924C95.5786 36.3647 95.1899 36.7362 94.6948 37.0067C94.1996 37.2718 93.6436 37.4041 93.0275 37.4041ZM93.0275 36.4193C93.4308 36.4193 93.7936 36.3302 94.116 36.1515C94.4384 35.9674 94.692 35.7138 94.8762 35.3914C95.0603 35.0631 95.1526 34.6975 95.1526 34.2943C95.1526 33.8912 95.0603 33.5283 94.8762 33.2059C94.692 32.8776 94.4384 32.6242 94.116 32.4457C93.7936 32.2614 93.4308 32.1693 93.0275 32.1693C92.6243 32.1693 92.2615 32.2614 91.9391 32.4457C91.6167 32.6242 91.3631 32.8776 91.1789 33.2059C90.9948 33.5283 90.9025 33.8912 90.9025 34.2943C90.9025 34.6975 90.9948 35.0631 91.1789 35.3914C91.3631 35.7138 91.6167 35.9674 91.9391 36.1515C92.2615 36.3302 92.6243 36.4193 93.0275 36.4193Z" fill="#186AB4"/>
<path d="M4.4506 9.71577C4.4506 9.71577 3.00904 8.65194 4.72427 7.73973L16.9505 0.639881C16.9505 0.639881 18.8777 -0.64493 21.0079 0.426604L36.7507 9.44854C36.7507 9.44854 38.6187 10.4096 38.4055 12.491L38.4594 19.8054C38.4594 19.8054 38.5662 21.3536 37.0721 22.0474L28.4226 27.2265C28.4226 27.2265 26.981 27.707 27.035 26.3721L26.9913 23.214C26.9811 22.623 27.0827 22.0354 27.2907 21.4821C27.5772 20.7266 28.086 19.7874 28.9044 19.4855L30.4526 18.5784C30.4526 18.5784 31.9468 17.778 32.0008 16.3364L31.9622 15.1801C31.9494 14.7946 31.8415 14.3719 31.5395 14.1227C31.1112 13.7506 30.6361 13.4362 30.1262 13.1873L20.3026 7.53417C20.3026 7.53417 19.5548 6.62711 18.2199 7.42754L11.3911 11.3706C11.3911 11.3706 10.1629 12.3843 7.70758 11.4772L4.4506 9.71577Z" fill="#186AB4"/>
<path d="M10.1205 15.9343L1.5983 20.8898C1.5983 20.8898 0.0565315 21.7429 0 23.5005V31.3931C0 31.3931 0.106639 32.7254 1.06511 33.2586L17.0507 42.6905C17.6319 42.9907 18.2715 43.1604 18.925 43.188C19.5785 43.2153 20.2301 43.0999 20.8345 42.8497L33.7301 35.39C33.7301 35.39 34.4907 35.0445 34.3725 34.2415C34.3416 34.0602 34.2707 33.888 34.1649 33.7376C34.0591 33.5871 33.9211 33.4621 33.7609 33.3717L31.6333 32.1023C30.8686 31.6422 30.0035 31.3745 29.1125 31.3224C28.3416 31.28 27.7981 31.3533 26.9579 31.8672L20.1908 35.7037C20.1908 35.7037 19.4983 36.3962 17.9527 35.7037L7.35297 29.4659C7.35297 29.4659 6.18123 29.0933 6.34052 27.2817L6.50372 26.4248C6.54494 26.2031 6.62777 25.9912 6.74781 25.8003C7.11107 25.2301 7.63756 24.7824 8.25876 24.5155C8.25876 24.5155 11.1367 23.2898 11.1894 20.8924L11.2421 16.7899C11.2421 16.7899 11.4566 15.6144 10.1205 15.9343Z" fill="#186AB4"/>
<path d="M19.3415 27.3048C22.4963 27.3048 25.0538 24.7474 25.0538 21.5926C25.0538 18.4378 22.4963 15.8803 19.3415 15.8803C16.1867 15.8803 13.6293 18.4378 13.6293 21.5926C13.6293 24.7474 16.1867 27.3048 19.3415 27.3048Z" fill="#186AB4"/>
<path d="M15.288 32.9785L16.8092 33.946L20.566 31.6334C20.566 31.6334 19.8092 30.7597 17.8126 31.4213C17.7136 31.4551 17.6191 31.5009 17.5312 31.5576L15.288 32.9785Z" fill="#186AB4"/>
<path d="M17.7715 34.3405L18.7993 35.0482C18.7993 35.0482 19.2002 35.4684 19.84 34.948C20.4799 34.4278 25.312 31.7451 25.312 31.7451C25.312 31.7451 24.2983 30.7044 22.0152 31.8248L17.7715 34.3405Z" fill="#186AB4"/>
<path d="M17.891 11.5569L21.2315 9.61557C21.3325 9.53309 21.458 9.48634 21.5884 9.48265C21.7188 9.47891 21.8467 9.51844 21.9523 9.59501L23.0765 10.1938L20.9129 11.5364C20.9129 11.5364 19.5934 12.0978 17.891 11.5569Z" fill="#186AB4"/>
<path d="M12.947 11.4965L19.2131 7.85283L20.2537 8.50678C20.2537 8.50678 20.5737 8.82671 20.1343 9.05411L15.6695 11.7355C15.6695 11.7355 13.8271 11.9179 12.947 11.4965Z" fill="#186AB4"/>
<path d="M19.0132 19.6324L18.7841 19.864C18.7451 19.9026 18.6928 19.9242 18.6382 19.9242C18.5837 19.9242 18.5313 19.9026 18.4924 19.864L17.9549 19.3123C17.9366 19.2928 17.9147 19.2772 17.8904 19.2663C17.866 19.2555 17.8398 19.2497 17.8132 19.2492H16.8383C16.7978 19.2494 16.7584 19.2618 16.7249 19.2847C16.6914 19.3077 16.6654 19.3402 16.6502 19.3781C16.6351 19.416 16.6314 19.4576 16.6396 19.4976C16.6479 19.5376 16.6677 19.5743 16.6966 19.6029L17.8674 20.7862L18.0508 20.9715L18.5674 21.4937L18.7507 21.679L19.1674 22.1001L19.3507 22.2854L19.8674 22.8076L20.0507 22.9929L20.7382 23.6877C20.7564 23.7072 20.7784 23.7228 20.8027 23.7337C20.827 23.7445 20.8533 23.7504 20.8798 23.7509H21.8631C21.9036 23.7506 21.9431 23.7382 21.9766 23.7153C22.01 23.6923 22.036 23.6598 22.0512 23.6219C22.0664 23.584 22.0701 23.5424 22.0618 23.5024C22.0535 23.4624 22.0337 23.4257 22.0048 23.3971L20.9757 22.357C20.9375 22.3176 20.9161 22.2647 20.9161 22.2096C20.9161 22.1545 20.9375 22.1016 20.9757 22.0622L21.2048 21.8306C21.2438 21.792 21.2961 21.7704 21.3507 21.7704C21.4052 21.7704 21.4576 21.792 21.4965 21.8306L23.0173 23.3676C23.0402 23.3921 23.0687 23.4105 23.1002 23.4213C23.1317 23.432 23.1654 23.4348 23.1983 23.4295C23.2312 23.4241 23.2622 23.4106 23.2888 23.3903C23.3153 23.37 23.3365 23.3434 23.3506 23.3129C23.6906 22.5433 23.8065 21.6916 23.6847 20.8578C23.563 20.0239 23.2086 19.2424 22.6631 18.6049C22.6359 18.5731 22.5997 18.5506 22.5594 18.5402C22.5192 18.5298 22.4767 18.5321 22.4378 18.5467C22.3988 18.5614 22.3652 18.5877 22.3415 18.6222C22.3177 18.6567 22.3049 18.6976 22.3048 18.7396V20.2514C22.3043 20.2783 22.2986 20.3048 22.2878 20.3294C22.2771 20.354 22.2616 20.3761 22.2423 20.3946L21.3465 21.321L21.1632 21.5063L20.6465 22.0285L20.4632 22.2138L20.1924 22.4875C20.1534 22.5261 20.1011 22.5477 20.0465 22.5477C19.992 22.5477 19.9396 22.5261 19.9007 22.4875L19.6715 22.2559C19.6334 22.2166 19.612 22.1636 19.612 22.1085C19.612 22.0534 19.6334 22.0005 19.6715 21.9611L19.9424 21.6874L20.1257 21.5021L20.6423 20.9799L20.8257 20.7946L21.5132 20.0998C21.5325 20.0813 21.548 20.0592 21.5587 20.0346C21.5694 20.01 21.5752 19.9835 21.5757 19.9566V18.9797C21.5754 18.9388 21.5632 18.8989 21.5405 18.865C21.5178 18.8312 21.4856 18.805 21.4481 18.7896C21.4106 18.7743 21.3694 18.7705 21.3299 18.7789C21.2903 18.7872 21.254 18.8073 21.2257 18.8365L20.0549 20.0198L19.8715 20.2051L19.3549 20.7273L19.1632 20.9125L18.8924 21.1863C18.8534 21.2249 18.8011 21.2465 18.7466 21.2465C18.692 21.2465 18.6397 21.2249 18.6008 21.1863L18.3716 20.9547C18.3334 20.9153 18.312 20.8624 18.312 20.8073C18.312 20.7522 18.3334 20.6992 18.3716 20.6599L18.6424 20.3862L18.8257 20.2009L19.3424 19.6787L19.5257 19.4934L21.1923 17.809C21.2156 17.7854 21.233 17.7565 21.2431 17.7248C21.2532 17.6931 21.2557 17.6594 21.2504 17.6265C21.2452 17.5937 21.2322 17.5625 21.2127 17.5356C21.1932 17.5088 21.1676 17.487 21.1382 17.4721C20.3767 17.1285 19.534 17.0113 18.709 17.1344C17.884 17.2574 17.1108 17.6156 16.48 18.1669C16.4486 18.1944 16.4263 18.231 16.416 18.2717C16.4057 18.3124 16.408 18.3553 16.4225 18.3947C16.4369 18.4341 16.463 18.468 16.4971 18.492C16.5312 18.516 16.5717 18.5289 16.6133 18.5291H18.1091C18.1357 18.5296 18.1619 18.5354 18.1862 18.5462C18.2105 18.5571 18.2325 18.5727 18.2508 18.5922L19.0049 19.3545C19.0403 19.3914 19.0608 19.4404 19.0624 19.4918C19.0639 19.5432 19.0464 19.5933 19.0132 19.6324Z" fill="white"/>
<path d="M19.5217 23.515L19.3384 23.3297L18.8217 22.8075L18.6384 22.6222L18.2218 22.2011L18.0384 22.0158L17.5218 21.4936L17.3301 21.2999L15.6635 19.6155C15.6406 19.591 15.6121 19.5726 15.5806 19.5618C15.549 19.5511 15.5154 19.5483 15.4825 19.5537C15.4496 19.5591 15.4186 19.5725 15.392 19.5928C15.3655 19.6132 15.3442 19.6397 15.3301 19.6702C15.0799 20.2419 14.9507 20.8601 14.951 21.4852C14.9509 22.5498 15.3311 23.5787 16.0218 24.3825C16.0491 24.4142 16.0852 24.4368 16.1255 24.4471C16.1658 24.4575 16.2082 24.4552 16.2472 24.4406C16.2861 24.4259 16.3197 24.3996 16.3435 24.3652C16.3672 24.3307 16.38 24.2897 16.3801 24.2477V22.7359C16.3806 22.709 16.3864 22.6825 16.3971 22.658C16.4078 22.6334 16.4233 22.6112 16.4426 22.5927L17.1968 21.8305C17.2357 21.7919 17.2881 21.7703 17.3426 21.7703C17.3971 21.7703 17.4495 21.7919 17.4885 21.8305L17.7176 22.0621C17.7558 22.1015 17.7772 22.1544 17.7772 22.2095C17.7772 22.2647 17.7558 22.3176 17.7176 22.3569L17.1718 22.8917C17.1525 22.9102 17.137 22.9324 17.1263 22.957C17.1155 22.9815 17.1098 23.008 17.1093 23.0349V24.0287C17.1095 24.0696 17.1218 24.1095 17.1445 24.1433C17.1672 24.1772 17.1994 24.2034 17.2368 24.2188C17.2743 24.2341 17.3155 24.2378 17.3551 24.2295C17.3947 24.2212 17.431 24.2011 17.4593 24.1719L18.4884 23.1318C18.5274 23.0932 18.5797 23.0716 18.6343 23.0716C18.6888 23.0716 18.7411 23.0932 18.7801 23.1318L19.0092 23.3634C19.0474 23.4027 19.0688 23.4556 19.0688 23.5108C19.0688 23.5659 19.0474 23.6188 19.0092 23.6582L17.4926 25.2036C17.4684 25.2268 17.4502 25.2555 17.4396 25.2874C17.4289 25.3193 17.4261 25.3534 17.4314 25.3866C17.4368 25.4198 17.4501 25.4512 17.4702 25.478C17.4903 25.5049 17.5166 25.5263 17.5468 25.5405C18.3083 25.8841 19.1509 26.0013 19.9759 25.8782C20.8009 25.7551 21.5742 25.397 22.205 24.8457C22.2364 24.8182 22.2587 24.7816 22.269 24.7409C22.2793 24.7002 22.277 24.6573 22.2625 24.6179C22.248 24.5786 22.222 24.5446 22.1879 24.5206C22.1538 24.4966 22.1132 24.4836 22.0717 24.4835H20.5676C20.5409 24.4831 20.5148 24.4772 20.4904 24.4664C20.4661 24.4555 20.4442 24.4399 20.4259 24.4204L19.5217 23.515Z" fill="white"/>
</svg>
